%YAML 1.1
%TAG !u! tag:unity3d.com,2011:
--- !u!114 &11400000
MonoBehaviour:
  m_ObjectHideFlags: 0
  m_CorrespondingSourceObject: {fileID: 0}
  m_PrefabInstance: {fileID: 0}
  m_PrefabAsset: {fileID: 0}
  m_GameObject: {fileID: 0}
  m_Enabled: 1
  m_EditorHideFlags: 0
  m_Script: {fileID: 11500000, guid: 175817a8a4e9c7a47a0fa33bddaff35b, type: 3}
  m_Name: SkeletonDataObject
  m_EditorClassIdentifier: 
  MobSpawnStateName: SkeletonSpawnAnim
  MobMoveSpeed: 100
  MobAttackRange: 10
  MobEngageDistance: 3
  MobAttackCooldown: 2
  MobAttackAnimationDuration: 0.5
  MobDamagedAnimationDuration: 0.25
  MobProjectileSpeed: 4
  MobProjectileAcceleration: 1.2
  MobProjectileSpreadLag: 0.1
  MobKnockbackAmount: 2
  MobProjectileDamage: 1
  MobMaxHealth: 8
